tek4414.csv

Model,MDO3024
Firmware Version,1.30

Waveform Type,ANALOG,,
Point Format,Y,,
Horizontal Units,s,,
Horizontal Scale,0.1,,
Horizontal Delay,0,,
Sample Interval,0.0001,,
Record Length,10000,,
Gating,0.0% to 100.0%,,
Probe Attenuation,1,1,1
Vertical Units,V,V,V
Vertical Offset,0,0,0
Vertical Scale,0.1,1,5
Vertical Position,1.98,0,-2.04
,,,
,,,
,,,
Label,,,
TIME,CH1,CH2,CH3
-5.000e-01,0.121922,2.02375,1.58281
-4.999e-01,0.121937,1.97375,1.58359
-4.998e-01,0.119594,1.96516,1.58047
-4.997e-01,0.114906,2.08,1.59063
-4.996e-01,0.114828,2.02719,1.59141
-4.995e-01,0.118016,2.02281,1.5875
-4.994e-01,0.121453,2.15687,1.58359
-4.993e-01,0.114375,2.02937,1.58516
-4.992e-01,0.114266,2.00406,1.58047
-4.991e-01,0.114172,1.96516,1.575
-4.990e-01,0.117063,1.9425,1.57344
-4.989e-01,0.120984,2.06109,1.57266
-4.988e-01,0.113766,1.97797,1.56719
-4.987e-01,0.11725,1.98531,1.56875
-4.986e-01,0.124547,2.06391,1.57266
-4.985e-01,0.120891,1.93594,1.57109
-4.984e-01,0.117406,2.01422,1.57109
-4.983e-01,0.124437,2.13922,1.57422
-4.982e-01,0.121266,2.04797,1.58203
-4.981e-01,0.118016,2.06375,1.58125
-4.980e-01,0.125,2.14234,1.57812
-4.979e-01,0.121781,2.02188,1.57031
-4.978e-01,0.115312,2.02422,1.57344
-4.977e-01,0.118563,2.02969,1.56719
-4.976e-01,0.125891,2.10531,1.56016
-4.975e-01,0.1225,2.02281,1.56563
-4.974e-01,0.119484,2.05734,1.57031
-4.973e-01,0.126656,2.15141,1.56875
-4.972e-01,0.126516,2.0625,1.57344
-4.971e-01,0.123609,2.01406,1.56406
-4.970e-01,0.120781,2.06969,1.56641
-4.969e-01,0.128,2.14453,1.56563
-4.968e-01,0.124812,2.08547,1.56094
-4.967e-01,0.119016,2.08047,1.56484
-4.966e-01,0.122391,2.04703,1.57656
-4.965e-01,0.129531,2.09703,1.57422
-4.964e-01,0.126469,2.03859,1.56953
-4.963e-01,0.120797,2.06547,1.57578
-4.962e-01,0.120594,1.99984,1.58125
-4.961e-01,0.118094,1.95547,1.57812
-4.960e-01,0.116109,2.04188,1.56641
-4.959e-01,0.122828,2.06578,1.57344
-4.958e-01,0.120156,2.03281,1.58047
-4.957e-01,0.11525,2.07031,1.57891
-4.956e-01,0.118406,2.03375,1.57344
-4.955e-01,0.125203,1.99797,1.57656
-4.954e-01,0.122766,1.95453,1.56328
-4.953e-01,0.117688,2.04375,1.56797
-4.952e-01,0.117547,1.99094,1.56875
-4.951e-01,0.115297,1.97188,1.56875
-4.950e-01,0.113922,2.10859,1.57422
-4.949e-01,0.120672,2.07531,1.57266
-4.948e-01,0.120547,1.97313,1.57578
-4.947e-01,0.118172,1.98453,1.56797
-4.946e-01,0.117203,2.09109,1.56641
-4.945e-01,0.123766,2.03219,1.56563
-4.944e-01,0.123516,1.97406,1.57656
-4.943e-01,0.121484,2.01984,1.57031
-4.942e-01,0.117125,2.09906,1.57578
-4.941e-01,0.116844,2.02687,1.56484
-4.940e-01,0.116687,2.00625,1.57266
-4.939e-01,0.116516,1.93547,1.57344
-4.938e-01,0.119641,1.92391,1.56641
-4.937e-01,0.123391,2.08484,1.56719
-4.936e-01,0.116641,2.03844,1.55859
-4.935e-01,0.119531,2.05984,1.5625
-4.934e-01,0.126609,2.18,1.56719
-4.933e-01,0.123234,2.08422,1.5625
-4.932e-01,0.116641,2.04578,1.56016
-4.931e-01,0.116437,1.98344,1.56563
-4.930e-01,0.119469,2.00219,1.56641
-4.929e-01,0.1265,2.13703,1.56094
-4.928e-01,0.123188,2.07437,1.54922
-4.927e-01,0.1165,2.01313,1.55156
-4.926e-01,0.11975,2.04578,1.55703
-4.925e-01,0.126563,2.1525,1.56094
-4.924e-01,0.123578,2.08516,1.55625
-4.923e-01,0.117063,2.02766,1.55703
-4.922e-01,0.120437,2.06719,1.57031
-4.921e-01,0.12725,2.19625,1.56484
-4.920e-01,0.127109,2.12797,1.56719
-4.919e-01,0.124141,2.03812,1.5625
-4.918e-01,0.117828,2.01234,1.55703
-4.917e-01,0.120844,2.0375,1.55859
-4.916e-01,0.128016,2.13422,1.55547
-4.915e-01,0.125188,2.08109,1.55156
-4.914e-01,0.118828,2.05625,1.55938
-4.913e-01,0.1185,2.0075,1.55625
-4.912e-01,0.115828,1.98266,1.5625
-4.911e-01,0.113312,2.045,1.56172
-4.910e-01,0.120266,2.115,1.55781
-4.909e-01,0.120063,2.03016,1.56016
-4.908e-01,0.117516,1.99547,1.56406
-4.907e-01,0.115172,2.07938,1.55313
-4.906e-01,0.122141,2.13875,1.55781
-4.905e-01,0.121672,2.05922,1.56094
-4.904e-01,0.118953,2.03797,1.56641
-4.903e-01,0.113516,2.07984,1.56719
-4.902e-01,0.116859,2.08188,1.55859
-4.901e-01,0.123891,2.10203,1.56016
-4.900e-01,0.123766,2.01781,1.55781
-4.899e-01,0.121063,2.00984,1.56484
-4.898e-01,0.115719,2.08219,1.56094
-4.897e-01,0.118563,2.07047,1.55547
-4.896e-01,0.125859,2.08281,1.56094
-4.895e-01,0.123156,2.05187,1.55156
-4.894e-01,0.117891,2.13266,1.56016
-4.893e-01,0.11775,2.10531,1.55078
-4.892e-01,0.117594,2.055,1.55859
-4.891e-01,0.115203,2.00297,1.56016
-4.890e-01,0.113578,2.12016,1.55781
-4.889e-01,0.120359,2.11828,1.56094
-4.888e-01,0.120328,2.03688,1.56797
-4.887e-01,0.12,1.98297,1.56406
-4.886e-01,0.117594,1.975,1.56563
-4.885e-01,0.116203,2.11313,1.55938
-4.884e-01,0.122844,2.11094,1.56797
-4.883e-01,0.122688,1.99656,1.56953
-4.882e-01,0.120531,2.01219,1.57266
-4.881e-01,0.116172,2.14828,1.5625
-4.880e-01,0.115766,2.12594,1.56406
-4.879e-01,0.115563,2.00813,1.57578
-4.878e-01,0.118703,2.01969,1.575
-4.877e-01,0.122547,2.155,1.56875
-4.876e-01,0.115469,2.05797,1.56094
-4.875e-01,0.11525,1.99969,1.56094
-4.874e-01,0.118563,2.01828,1.55859
-4.873e-01,0.122109,2.13484,1.56172
-4.872e-01,0.115266,2.05141,1.56484
-4.871e-01,0.115344,1.98578,1.56875
-4.870e-01,0.118422,2.00687,1.56406
-4.869e-01,0.125172,2.11813,1.56875
-4.868e-01,0.121859,2.03531,1.56797
-4.867e-01,0.118547,2.03437,1.5625
-4.866e-01,0.12525,2.17313,1.56797
-4.865e-01,0.122188,2.09391,1.5625
-4.864e-01,0.115484,2.02078,1.56172
-4.863e-01,0.118922,2.04188,1.55625
-4.862e-01,0.125828,2.12141,1.56406
-4.861e-01,0.122531,2.05812,1.56641
-4.860e-01,0.116109,2.03063,1.55703
-4.859e-01,0.119563,2.05453,1.56484
-4.858e-01,0.126453,2.10625,1.56406
-4.857e-01,0.123375,2.01531,1.55859
-4.856e-01,0.120359,2.05266,1.55703
-4.855e-01,0.127578,2.15547,1.56016
-4.854e-01,0.124625,2.08047,1.56953
-4.853e-01,0.118063,2.04734,1.56641
-4.852e-01,0.115219,2.01609,1.55781
-4.851e-01,0.113047,2.05734,1.56094
-4.850e-01,0.119906,2.11891,1.56172
-4.849e-01,0.119688,2.04969,1.56484
-4.848e-01,0.119625,2.00844,1.56328
-4.847e-01,0.116687,1.93734,1.56094
-4.846e-01,0.114547,2.00906,1.5625
-4.845e-01,0.121391,2.06984,1.55859
-4.844e-01,0.118828,2.00438,1.56484
-4.843e-01,0.116781,2.07375,1.57266
-4.842e-01,0.123891,2.12125,1.57031
-4.841e-01,0.123641,2.02969,1.56094
-4.840e-01,0.121109,2.01609,1.56641
-4.839e-01,0.115563,2.06891,1.55938
-4.838e-01,0.118797,2.03578,1.56563
-4.837e-01,0.125875,2.015,1.57031
-4.836e-01,0.12325,1.97562,1.57266
-4.835e-01,0.117922,2.03219,1.56875
-4.834e-01,0.117719,1.99594,1.57656
-4.833e-01,0.115578,2.00516,1.56953
-4.832e-01,0.114094,2.09437,1.56563
-4.831e-01,0.121172,1.98328,1.57578
-4.830e-01,0.118953,2.01578,1.56328
-4.829e-01,0.114156,2.1275,1.56953
-4.828e-01,0.117188,2.08828,1.56563
-4.827e-01,0.123766,2.01359,1.56172
-4.826e-01,0.121609,1.98562,1.56875
-4.825e-01,0.117297,2.06281,1.56563
-4.824e-01,0.117203,1.98344,1.57422
-4.823e-01,0.116828,1.97828,1.57109
-4.822e-01,0.119797,2.00047,1.57031
-4.821e-01,0.123812,2.12078,1.56719
-4.820e-01,0.117094,2.04594,1.56953
-4.819e-01,0.116563,1.98844,1.56875
-4.818e-01,0.119656,2.00641,1.56406
-4.817e-01,0.123547,2.12766,1.5625
-4.816e-01,0.116687,2.05859,1.5625
-4.815e-01,0.116563,1.9975,1.57109
-4.814e-01,0.119672,2.02344,1.55938
-4.813e-01,0.126781,2.13109,1.56016
-4.812e-01,0.123516,2.02766,1.56641
-4.811e-01,0.116563,2.00109,1.56641
-4.810e-01,0.119781,2.04172,1.57266
-4.809e-01,0.126844,2.15953,1.57031
-4.808e-01,0.123625,2.06859,1.55938
-4.807e-01,0.117031,2.03234,1.55703
-4.806e-01,0.120266,2.04781,1.55703
-4.805e-01,0.127016,2.15266,1.5625
-4.804e-01,0.126516,2.09609,1.55313
-4.803e-01,0.123719,2.0125,1.55625
-4.802e-01,0.120937,2.05187,1.5625
-4.801e-01,0.127844,2.14734,1.56172
-4.800e-01,0.124703,2.07703,1.55938
-4.799e-01,0.118359,2.04781,1.56953
-4.798e-01,0.118391,2.01922,1.56563
-4.797e-01,0.121656,2.00625,1.56875
-4.796e-01,0.1285,2.0725,1.55938
-4.795e-01,0.125703,2.02234,1.55938
-4.794e-01,0.1195,2.02703,1.55391
-4.793e-01,0.116625,2.00891,1.55703
-4.792e-01,0.114344,2.06969,1.56563
-4.791e-01,0.121359,2.12828,1.56563
-4.790e-01,0.121109,2.03734,1.56328
-4.789e-01,0.118297,1.99828,1.55547
-4.788e-01,0.116203,2.08641,1.56094
-4.787e-01,0.123063,2.13203,1.57031
-4.786e-01,0.122812,2.04453,1.55234
-4.785e-01,0.120063,2.02312,1.55234
-4.784e-01,0.118156,2.10875,1.55625
-4.783e-01,0.125016,2.14125,1.55547
-4.782e-01,0.124703,2.05187,1.55547
-4.781e-01,0.122,2.04703,1.55
-4.780e-01,0.116672,2.10516,1.55938
-4.779e-01,0.116531,2.06312,1.56094
-4.778e-01,0.119969,2.03156,1.55547
-4.777e-01,0.126875,2.04719,1.56328
-4.776e-01,0.124141,1.99969,1.56016
-4.775e-01,0.118969,2.075,1.55781
-4.774e-01,0.118781,2.03625,1.56016
-4.773e-01,0.116406,2.02937,1.55781
-4.772e-01,0.115234,2.13984,1.56094
-4.771e-01,0.121906,2.11906,1.56016
-4.770e-01,0.121547,2.02516,1.56797
-4.769e-01,0.119156,2.03344,1.54844
-4.768e-01,0.114672,2.14188,1.56016
-4.767e-01,0.114625,2.10047,1.55938
-4.766e-01,0.117531,2.02625,1.55938
-4.765e-01,0.124234,1.96734,1.55313
-4.764e-01,0.121953,1.96328,1.56016
-4.763e-01,0.117578,2.09422,1.55859
-4.762e-01,0.117359,2.07703,1.55547
-4.761e-01,0.117125,2.00953,1.55156
-4.760e-01,0.120328,1.99469,1.55625
-4.759e-01,0.123969,2.1125,1.55703
-4.758e-01,0.117047,2.02422,1.55781
-4.757e-01,0.120125,2.02953,1.55625
-4.756e-01,0.124047,2.13156,1.56094
-4.755e-01,0.117156,2.06219,1.56328
-4.754e-01,0.117203,1.98359,1.56172
-4.753e-01,0.120234,1.98406,1.56406
-4.752e-01,0.124172,2.08953,1.57031
-4.751e-01,0.117406,2.04578,1.55938
-4.750e-01,0.117016,1.97641,1.56797
-4.749e-01,0.120219,1.94562,1.57031
-4.748e-01,0.124281,2.03109,1.56875
-4.747e-01,0.121078,2.05812,1.56406
-4.746e-01,0.124719,2.13125,1.56953
-4.745e-01,0.120656,1.88875,1.57266
-4.744e-01,0.124891,1.97016,1.57578
-4.743e-01,0.115719,1.99859,1.58047
-4.742e-01,0.113047,2.02062,1.57891
-4.741e-01,0.120188,2.09219,1.57734
-4.740e-01,0.117156,1.99297,1.57656
-4.739e-01,0.114563,2.00563,1.57812
-4.738e-01,0.121672,2.10312,1.57422
-4.737e-01,0.118859,2.01016,1.57578
-4.736e-01,0.116484,2.07437,1.57109
-4.735e-01,0.123359,2.11844,1.56875
-4.734e-01,0.123047,2.04078,1.57656
-4.733e-01,0.120437,2.00047,1.57422
-4.732e-01,0.118469,2.06422,1.58125
-4.731e-01,0.125281,2.12016,1.57422
-4.730e-01,0.124844,2.03109,1.57734
-4.729e-01,0.122344,1.97156,1.58359
-4.728e-01,0.120266,2.04594,1.59297
-4.727e-01,0.127172,2.07469,1.58672
-4.726e-01,0.124547,2.00156,1.58516
-4.725e-01,0.119219,2.04438,1.57812
-4.724e-01,0.119047,1.97828,1.57891
-4.723e-01,0.116641,1.9575,1.57344
-4.722e-01,0.11525,2.05344,1.58047
-4.721e-01,0.121781,2.0225,1.575
-4.720e-01,0.119469,1.98672,1.57969
-4.719e-01,0.115063,2.08078,1.5625
-4.718e-01,0.118297,1.99687,1.56953
-4.717e-01,0.122891,1.995,1.57578
-4.716e-01,0.118219,2.09766,1.5875
-4.715e-01,0.118156,2.02,1.5875
-4.714e-01,0.121172,2.03031,1.575
-4.713e-01,0.124766,2.14406,1.57031
-4.712e-01,0.117922,2.06797,1.57656
-4.711e-01,0.117531,1.98094,1.58125
-4.710e-01,0.120437,1.97922,1.59688
-4.709e-01,0.124453,2.11094,1.58281
-4.708e-01,0.117563,2.03375,1.58047
-4.707e-01,0.120703,2.04203,1.58672
-4.706e-01,0.124656,2.14688,1.59375
-4.705e-01,0.118063,2.07578,1.58438
-4.704e-01,0.117656,2.00359,1.59219
-4.703e-01,0.120859,2.01578,1.58594
-4.702e-01,0.124906,2.10125,1.58594
-4.701e-01,0.118141,2.04703,1.59141
-4.700e-01,0.115031,1.98578,1.58281
-4.699e-01,0.1125,2.01734,1.58125
-4.698e-01,0.119328,2.11969,1.58125
-4.697e-01,0.116047,2.00984,1.57812
-4.696e-01,0.113516,2.02906,1.57578
-4.695e-01,0.120609,2.12828,1.58203
-4.694e-01,0.120109,2.02609,1.58203
-4.693e-01,0.117219,1.98172,1.57891
-4.692e-01,0.114719,2.03453,1.58281
-4.691e-01,0.121672,2.11359,1.58359
-4.690e-01,0.118953,2.02422,1.58516
-4.689e-01,0.116219,2.05141,1.58359
-4.688e-01,0.123359,2.1275,1.58438
-4.687e-01,0.122734,2.05984,1.58203
-4.686e-01,0.120188,2.02844,1.57109
-4.685e-01,0.118141,2.07172,1.58047
-4.684e-01,0.125031,2.11625,1.57422
-4.683e-01,0.124781,2.02094,1.58203
-4.682e-01,0.122047,1.98438,1.57969
-4.681e-01,0.119969,2.05203,1.56563
-4.680e-01,0.127031,2.09953,1.57344
-4.679e-01,0.124141,2.04875,1.57109
-4.678e-01,0.118937,2.08406,1.56875
-4.677e-01,0.118703,2.01406,1.57266
-4.676e-01,0.116344,2.00547,1.58281
-4.675e-01,0.114719,2.11969,1.57266
-4.674e-01,0.121563,2.06969,1.57266
-4.673e-01,0.119328,2.03469,1.56953
-4.672e-01,0.1145,2.12172,1.57656
-4.671e-01,0.117516,2.06844,1.57266
-4.670e-01,0.124391,2.02937,1.57031
-4.669e-01,0.122141,1.99141,1.5625
-4.668e-01,0.117547,2.08234,1.56328
-4.667e-01,0.117219,2.04141,1.5625
-4.666e-01,0.116812,1.97891,1.56797
-4.665e-01,0.116656,1.93016,1.56719
-4.664e-01,0.114766,1.87391,1.56719
-4.663e-01,0.113844,2.01547,1.57812
-4.662e-01,0.120516,1.95359,1.56797
-4.661e-01,0.118375,1.93578,1.57969
-4.660e-01,0.114687,2.06594,1.57812
-4.659e-01,0.114344,2.00312,1.57578
-4.658e-01,0.1175,2.00375,1.56953
-4.657e-01,0.124391,2.09266,1.57266
-4.656e-01,0.120844,1.99469,1.575
-4.655e-01,0.117469,2.00219,1.56797
-4.654e-01,0.124469,2.1,1.57031
-4.653e-01,0.121141,1.98438,1.57031
-4.652e-01,0.117922,2.01328,1.56875
-4.651e-01,0.125188,2.10109,1.57422
-4.650e-01,0.121953,1.99953,1.57812
-4.649e-01,0.119047,2.02672,1.56953
-4.648e-01,0.125922,2.10766,1.57422
-4.647e-01,0.122922,2.01375,1.57109
-4.646e-01,0.120203,2.02828,1.56953
-4.645e-01,0.127141,2.10047,1.57266
-4.644e-01,0.124047,2.00203,1.56953
-4.643e-01,0.115344,2.00281,1.57891
-4.642e-01,0.113328,2.05688,1.56641
-4.641e-01,0.12025,2.09156,1.57422
-4.640e-01,0.117422,1.99219,1.57578
-4.639e-01,0.115203,2.05453,1.57969
-4.638e-01,0.122328,2.09422,1.57266
-4.637e-01,0.1195,2.01281,1.58281
-4.636e-01,0.117812,2.09078,1.57578
-4.635e-01,0.121063,2.09156,1.58125
-4.634e-01,0.116516,1.9275,1.58281
-4.633e-01,0.123063,2.10688,1.57734
-4.632e-01,0.122812,2.04281,1.57344
-4.631e-01,0.120312,2.0025,1.57812
-4.630e-01,0.115641,2.04625,1.57422
-4.629e-01,0.118844,2.02156,1.57578
-4.628e-01,0.125391,2.01156,1.58047
-4.627e-01,0.123094,1.91484,1.57422
-4.626e-01,0.118344,1.96922,1.57656
-4.625e-01,0.116297,1.97609,1.58281
-4.624e-01,0.115312,2.06828,1.58047
-4.623e-01,0.121766,2.00984,1.58047
-4.622e-01,0.119734,1.94203,1.58125
-4.621e-01,0.115859,2.03187,1.58359
-4.620e-01,0.115719,1.99984,1.58438
-4.619e-01,0.118688,1.97063,1.58516
-4.618e-01,0.122594,2.055,1.5875
-4.617e-01,0.115672,1.98719,1.58359
-4.616e-01,0.118922,1.99016,1.58047
-4.615e-01,0.123094,2.08234,1.58594
-4.614e-01,0.116344,1.99766,1.58516
-4.613e-01,0.119297,2.00953,1.58047
-4.612e-01,0.123391,2.09219,1.58281
-4.611e-01,0.116859,2.01453,1.58906
-4.610e-01,0.12025,2.01594,1.59688
-4.609e-01,0.127203,2.07609,1.58047
-4.608e-01,0.124094,1.99016,1.58828
-4.607e-01,0.121141,2.02547,1.57734
-4.606e-01,0.128,2.11031,1.57891
-4.605e-01,0.125,2.02609,1.57656
-4.604e-01,0.116391,2.00359,1.58125
-4.603e-01,0.114047,2.04297,1.58047
-4.602e-01,0.121,2.11031,1.57578
-4.601e-01,0.120797,2.01078,1.57578
-4.600e-01,0.118109,1.95828,1.57734
-4.599e-01,0.115906,2.00766,1.58047
-4.598e-01,0.122688,2.06203,1.58047
-4.597e-01,0.12,1.99594,1.57266
-4.596e-01,0.117875,2.03719,1.57812
-4.595e-01,0.124844,2.05328,1.58047
-4.594e-01,0.122484,1.99734,1.57266
-4.593e-01,0.116875,2.055,1.56719
-4.592e-01,0.12,2.03891,1.58047
-4.591e-01,0.127141,2.03797,1.57969
-4.590e-01,0.124531,2.01656,1.58125
-4.589e-01,0.119437,2.10484,1.58203
-4.588e-01,0.118937,1.98875,1.57969
-4.587e-01,0.116828,1.96938,1.575
-4.586e-01,0.115375,2.05328,1.575
-4.585e-01,0.122031,2.01672,1.57734
-4.584e-01,0.119734,1.97844,1.58203
-4.583e-01,0.115422,2.08984,1.57969
-4.582e-01,0.115141,2.02906,1.57812
-4.581e-01,0.118188,2.02984,1.575
-4.580e-01,0.122,2.13422,1.58047
-4.579e-01,0.114922,2.02703,1.57422
-4.578e-01,0.118109,2.02297,1.57734
-4.577e-01,0.121688,2.13422,1.58203
-4.576e-01,0.114953,2.06578,1.57969
-4.575e-01,0.118031,2.02047,1.57266
-4.574e-01,0.122063,2.11844,1.57578
-4.573e-01,0.115578,2.05063,1.57109
-4.572e-01,0.118344,2.01156,1.58047
-4.571e-01,0.125297,2.08859,1.57109
-4.570e-01,0.122203,1.99063,1.56406
-4.569e-01,0.119078,2,1.57422
-4.568e-01,0.125922,2.08016,1.56719
-4.567e-01,0.122781,1.99578,1.57109
-4.566e-01,0.119969,2.04359,1.56797
-4.565e-01,0.127016,2.08,1.57344
-4.564e-01,0.123922,1.98625,1.56875
-4.563e-01,0.120953,2.02328,1.56484
-4.562e-01,0.127859,2.08828,1.57734
-4.561e-01,0.125172,1.99594,1.56641
-4.560e-01,0.1165,2.03344,1.57109
-4.559e-01,0.110938,2.07703,1.56172
-4.558e-01,0.114031,1.98094,1.56641
-4.557e-01,0.118734,2.02391,1.56328
-4.556e-01,0.116547,2.07063,1.57344
-4.555e-01,0.123406,2.08891,1.57422
-4.554e-01,0.120688,2.04563,1.57656
-4.553e-01,0.115422,2.1075,1.58281
-4.552e-01,0.118641,2.02047,1.58125
-4.551e-01,0.125875,1.99047,1.58516
-4.550e-01,0.123094,1.93609,1.57969
-4.549e-01,0.117703,1.99281,1.58438
-4.548e-01,0.115594,1.99859,1.58516
-4.547e-01,0.113969,2.06813,1.57656
-4.546e-01,0.120531,2.05406,1.58281
-4.545e-01,0.118594,1.99719,1.59141
-4.544e-01,0.114328,2.11578,1.59375
-4.543e-01,0.113766,2.07734,1.59141
-4.542e-01,0.117063,2.03766,1.58359
-4.541e-01,0.123922,2.16297,1.58828
-4.540e-01,0.123672,2.06656,1.59688
-4.539e-01,0.120281,1.98516,1.58906
-4.538e-01,0.116437,2.00844,1.59141
-4.537e-01,0.123344,2.14234,1.59141
-4.536e-01,0.123078,2.06109,1.59453
-4.535e-01,0.119969,1.97437,1.57891
-4.534e-01,0.116281,1.98562,1.59922
-4.533e-01,0.123234,2.11703,1.59375
-4.532e-01,0.119734,2.03078,1.59063
-4.531e-01,0.116687,2.03953,1.59063
-4.530e-01,0.123578,2.16094,1.59531
-4.529e-01,0.123078,2.07094,1.59453
-4.528e-01,0.119969,1.98922,1.59297
-4.527e-01,0.116703,2.03063,1.58828
-4.526e-01,0.123531,2.13594,1.59141
-4.525e-01,0.120594,2.05953,1.59453
-4.524e-01,0.117953,2.06016,1.59297
-4.523e-01,0.124828,2.145,1.59219
-4.522e-01,0.124641,2.10953,1.60156
-4.521e-01,0.124422,2.06859,1.59688
-4.520e-01,0.121328,1.98531,1.60391
-4.519e-01,0.118375,2.00422,1.6
-4.518e-01,0.125578,2.10219,1.59766
-4.517e-01,0.122469,2.02203,1.60078
-4.516e-01,0.119594,2.05453,1.59141
-4.515e-01,0.123672,2.08828,1.60391
-4.514e-01,0.118828,1.95312,1.60391
-4.513e-01,0.124719,2.15375,1.59375
-4.512e-01,0.124797,2.08328,1.60078
-4.511e-01,0.121719,2.0575,1.59063
-4.510e-01,0.11625,2.09813,1.59141
-4.509e-01,0.119359,2.05766,1.59297
-4.508e-01,0.126422,2.07656,1.59688
-4.507e-01,0.123609,2.03297,1.60313
-4.506e-01,0.118078,2.09391,1.59922
-4.505e-01,0.118,2.05609,1.58906
-4.504e-01,0.121063,1.98672,1.59297
-4.503e-01,0.125766,2.04406,1.59297
-4.502e-01,0.120609,2.08922,1.59141
-4.501e-01,0.120188,2.03141,1.59063
-4.500e-01,0.120109,1.96906,1.59453
-4.499e-01,0.117953,1.97219,1.58828
-4.498e-01,0.116219,2.07938,1.58047
-4.497e-01,0.122937,2.06219,1.58906
-4.496e-01,0.120859,2.03922,1.59063
-4.495e-01,0.116172,2.14172,1.58203
-4.494e-01,0.115594,2.09031,1.58906
-4.493e-01,0.115719,2.01359,1.57969
-4.492e-01,0.113594,2.00328,1.58906
-4.491e-01,0.112344,2.12156,1.59922
-4.490e-01,0.119203,2.07469,1.59531
-4.489e-01,0.118719,1.95172,1.59531
-4.488e-01,0.116969,1.97406,1.58047
-4.487e-01,0.115969,2.12453,1.58672
-4.486e-01,0.122531,2.07563,1.58906
-4.485e-01,0.119125,1.96016,1.58281
-4.484e-01,0.115281,1.96328,1.58359
-4.483e-01,0.122328,2.10578,1.58438
-4.482e-01,0.119125,2.01203,1.57812
-4.481e-01,0.115547,1.99875,1.57578
-4.480e-01,0.122406,2.12016,1.57344
-4.479e-01,0.119203,2.04,1.57031
-4.478e-01,0.116141,2.04188,1.57734
-4.477e-01,0.123125,2.16672,1.57656
-4.476e-01,0.122984,2.07297,1.57031
-4.475e-01,0.119703,2.00016,1.58047
-4.474e-01,0.116672,2.02047,1.57891
-4.473e-01,0.123797,2.14969,1.58281
-4.472e-01,0.123531,2.07359,1.57734
-4.471e-01,0.120375,1.97984,1.58047
-4.470e-01,0.117437,2.01094,1.57891
-4.469e-01,0.124453,2.11687,1.57734
-4.468e-01,0.121609,2.03766,1.57422
-4.467e-01,0.118797,2.07609,1.58516
-4.466e-01,0.126047,2.16,1.57422
-4.465e-01,0.125828,2.07297,1.57891
-4.464e-01,0.122734,2.04078,1.57344
-4.463e-01,0.120063,2.06984,1.57344
-4.462e-01,0.127016,2.14234,1.57578
-4.461e-01,0.127,2.05,1.57344
-4.460e-01,0.12425,2.00844,1.57266
-4.459e-01,0.118344,2.00188,1.57109
-4.458e-01,0.11575,1.96891,1.56953
-4.457e-01,0.113516,2.08734,1.57734
-4.456e-01,0.12025,2.10422,1.575
-4.455e-01,0.120203,1.99813,1.57812
-4.454e-01,0.117688,1.985,1.57344
-4.453e-01,0.115687,2.08766,1.56641
-4.452e-01,0.123,2.09391,1.55781
-4.451e-01,0.120312,2.04766,1.56875
